-1.986021
-1.986021
-1.986021
-1.986021
-1.986021
-1.968667
-1.968667
-1.978951
-1.968667
-1.980236
-1.986021
-1.986021
-1.986021
-1.986021
-1.986021
-1.986021
-1.984735
-1.968667
-1.986021
-1.952599
-1.986021
-1.986021
-1.986021
-1.986021
-1.986021
-1.986021
-1.986021
-1.986021
-1.986021
-1.986021
-1.986021
-1.986021
-1.986021
-1.986021
-1.986021
-1.975094
-1.975094
-1.975094
-1.981498
-1.986021
-1.979951
-1.975094
-1.966192
-1.948100
-1.967382
-1.955836
-1.978737
-1.979832
-1.986021
-1.986021
-1.986021
-1.986021
-1.986021
-1.986021
-1.986021
-1.986021
-1.986021
-1.986021
-1.986021
-1.986021
-1.986021
-1.986021
-1.976023
-1.951313
-1.972690
-1.945743
-1.955170
-1.959336
-1.964168
-1.948933
-1.938459
-1.948671
-1.963216
-1.951313
-1.962883
-1.986021
-1.986021
-1.986021
-1.986021
-1.986021
-1.986021
-1.986021
-1.986021
-1.986021
-1.986021
-1.986021
-1.986021
-1.986021
-1.986021
-1.986021
-1.974023
-1.926747
-1.986021
-1.952599
-1.874900
-1.916106
-1.959883
-1.982165
-1.982165
-1.970381
-1.937031
-1.962168
-1.968024
-1.985450
-1.986021
-1.986021
-1.986021
-1.986021
-1.986021
-1.986021
-1.986021
-1.986021
-1.986021
-1.986021
-1.986021
-1.986021
-1.986021
-1.977666
-1.950671
-1.905037
-1.986021
-1.951742
-1.931389
-1.967405
-1.982307
-1.984355
-1.969691
-1.954884
-1.867140
-1.950575
-1.983236
-1.985711
-1.986021
-1.986021
-1.986021
-1.986021
-1.986021
-1.986021
-1.986021
-1.986021
-1.986021
-1.979927
-1.973166
-1.986021
-1.979641
-1.958645
-1.974738
-1.955075
-1.902157
-1.579174
-1.447296
-1.633235
-1.811699
-1.897515
-1.968739
-1.955170
-1.847811
-1.928675
-1.947029
-1.984973
-1.974214
-1.974523
-1.986021
-1.984688
-1.986021
-1.986021
-1.986021
-1.986021
-1.986021
-1.971881
-1.958669
-1.879542
-1.910965
-1.458127
-0.921235
-0.387914
0.128482
0.513548
0.740502
0.410925
0.005793
-0.385414
-0.837895
-1.368788
-1.909036
-1.930532
-1.796416
-1.964954
-1.866474
-1.980022
-1.970524
-1.977023
-1.986021
-1.986021
-1.981022
-1.972524
-1.986021
-1.947005
-1.887112
-1.960240
-1.503190
-0.077714
0.987738
1.673314
2.096182
2.250198
2.349226
2.174094
1.806073
1.465689
0.961362
0.284808
-0.254393
-1.160306
-1.769207
-1.921367
-1.809295
-1.981450
-1.982974
-1.970214
-1.970595
-1.986021
-1.975142
-1.951313
-1.985378
-1.986021
-1.957336
-1.945815
-0.225518
1.745157
2.132365
2.436851
2.384528
2.355820
2.211420
2.031480
2.299402
2.216634
2.311948
2.294475
2.048620
0.795753
-0.672499
-1.935674
-1.984973
-1.907894
-1.983260
-1.960645
-1.986021
-1.986021
-1.968667
-1.951313
-1.980236
-1.977451
-1.908251
-1.725716
0.285379
2.048382
2.241200
2.030600
1.809073
1.561837
1.280750
1.235973
0.960243
0.940747
1.232974
1.490494
1.904839
2.193852
1.212835
-0.969868
-1.924747
-1.680082
-1.980022
-1.958169
-1.986021
-1.986021
-1.968667
-1.951313
-1.973809
-1.953242
-1.941411
-1.818197
-0.712015
0.679300
0.988809
0.695154
-0.081166
-0.874530
-1.725121
-1.855761
-1.938031
-1.921796
-1.576151
-1.030642
0.208847
1.777198
1.966541
0.411806
-1.564034
-1.958027
-1.978022
-1.953956
-1.986021
-1.986021
-1.979594
-1.956455
-1.986021
-1.977642
-1.958979
-1.985450
-1.884137
-1.655492
-1.725430
-1.800820
-1.927271
-1.948314
-1.950147
-1.923057
-1.966882
-1.815769
-1.871282
-1.971738
-1.622189
0.548374
1.986466
0.787992
-1.200703
-1.931746
-1.985830
-1.968691
-1.943172
-1.986021
-1.985545
-1.984735
-1.986021
-1.973166
-1.926176
-1.856190
-1.958526
-1.951742
-1.953884
-1.964311
-1.950885
-1.892183
-1.872115
-1.917106
-1.924319
-1.968453
-1.886755
-1.910607
-1.882470
0.200753
1.913409
1.303246
-0.657503
-1.897539
-1.971453
-1.986021
-1.941458
-1.986021
-1.986021
-1.986021
-1.979594
-1.986021
-1.965073
-1.852905
-1.920225
-1.971548
-1.942744
-1.942196
-1.970429
-1.982807
-1.969953
-1.927699
-1.887041
-1.976618
-1.933151
-1.948886
-1.734928
0.537257
2.078590
1.499278
-0.387033
-1.958526
-1.977808
-1.971881
-1.986021
-1.986021
-1.986021
-1.986021
-1.951313
-1.950409
-1.986021
-1.940887
-1.963169
-1.961597
-1.978879
-1.930675
-1.967810
-1.761280
-1.388117
-1.062540
-1.103056
-0.993625
-1.411017
-1.513687
-0.812686
1.160465
2.154003
1.359972
-0.564045
-1.760566
-1.941673
-1.986021
-1.948314
-1.986021
-1.986021
-1.986021
-1.970595
-1.986021
-1.954099
-1.940387
-1.967453
-1.778134
-1.156045
-0.660573
-0.322284
0.102202
0.557967
0.868905
1.335811
1.334382
0.663517
0.464700
1.110642
2.070091
2.145434
1.218763
-0.865818
-1.847620
-1.926247
-1.950171
-1.986021
-1.986021
-1.986021
-1.978308
-1.969953
-1.974119
-1.930413
-1.969167
-1.901086
-0.929710
0.341797
1.637560
2.004557
2.241414
2.422068
2.349130
2.297189
2.220156
2.206017
2.189211
2.370055
2.379363
2.099586
1.241520
-0.290076
-1.615524
-1.915606
-1.875138
-1.940816
-1.978618
-1.985212
-1.969953
-1.961597
-1.981498
-1.973071
-1.947172
-0.473040
1.559837
2.336895
2.243105
2.165120
1.942118
1.933881
0.883640
0.608172
0.979430
1.642439
2.176356
2.364937
2.256173
2.398026
2.240867
1.598329
0.723720
-0.563236
-1.600765
-1.974237
-1.905680
-1.967405
-1.986021
-1.968667
-1.967167
-1.816341
-1.788061
0.174401
2.120367
2.145434
1.453858
-0.237801
-0.960227
-1.288661
-1.301516
-0.741057
0.375790
1.441004
2.173714
2.341894
2.193424
2.036170
2.218276
2.229631
1.849779
0.835554
-1.035212
-1.933960
-1.917678
-1.978737
-1.986021
-1.984093
-1.973166
-1.983260
-1.979736
-0.082166
1.774818
1.984180
0.870595
-0.466803
-0.865961
-1.288566
-0.296861
0.851622
1.853349
2.280692
2.354248
1.837281
1.163726
0.921251
1.448431
2.011913
2.042597
1.228904
-0.534884
-1.832695
-1.984569
-1.986021
-1.986021
-1.961597
-1.972666
-1.959693
-1.883899
-0.816804
0.990309
2.114797
2.158169
2.103585
2.005748
2.244675
2.226536
2.276479
2.129103
1.728470
0.997165
-0.489679
-1.642590
-1.686724
-1.626260
-1.381071
-0.663287
-0.635269
-1.571604
-1.971524
-1.968667
-1.972476
-1.986021
-1.972524
-1.976737
-1.947886
-1.985592
-1.794559
-0.856748
1.335168
2.022387
2.235130
2.177570
2.197351
1.741158
1.533128
0.431850
-1.145547
-1.946386
-1.863760
-1.913393
-1.890254
-1.943672
-1.911107
-1.969524
-1.982736
-1.953527
-1.948528
-1.972524
-1.986021
-1.986021
-1.986021
-1.966739
-1.908227
-1.959455
-1.978356
-1.852905
-0.845964
0.134481
0.934987
0.833626
0.430112
-0.423288
-1.350006
-1.460555
-1.867997
-1.976380
-1.970072
-1.946338
-1.900324
-1.946553
-1.907846
-1.932746
-1.981641
-1.982022
-1.933460
-1.986021
-1.986021
-1.986021
-1.986021
-1.966739
-1.932436
-1.977094
-1.915964
-1.949338
-1.931032
-1.896301
-1.791774
-1.806486
-1.848334
-1.945481
-1.948886
-1.979213
-1.913226
-1.886827
-1.932032
-1.939721
-1.963740
-1.951361
-1.964097
-1.956170
-1.960455
-1.981355
-1.956313
-1.986021
-1.986021
-1.986021
-1.986021
-1.983593
-1.937959
-1.978522
-1.962597
-1.983736
-1.981093
-1.977808
-1.924676
-1.982807
-1.984878
-1.980379
-1.928604
-1.974237
-1.960097
-1.951528
-1.954384
-1.937459
-1.980879
-1.985450
-1.961454
-1.974023
-1.986021
-1.962597
-1.986021
-1.986021
-1.986021
-1.986021
-1.986021
-1.972262
-1.946815
-1.962240
-1.986021
-1.973166
-1.969667
-1.968667
-1.968667
-1.974237
-1.959074
-1.909536
-1.959740
-1.957098
-1.942958
-1.968667
-1.968667
-1.980879
-1.986021
-1.986021
-1.986021
-1.986021
-1.986021
-1.986021
-1.986021
-1.986021
-1.986021
-1.986021
-1.986021
-1.986021
-1.975094
-1.984807
-1.986021
-1.975094
-1.975094
-1.986021
-1.986021
-1.986021
-1.979546
-1.954051
-1.981165
-1.983997
-1.975094
-1.968667
-1.975904
-1.986021
-1.986021
-1.986021
-1.986021
-1.986021
-1.986021
-1.986021
-1.986021
-1.986021
-1.986021
-1.986021
-1.986021
-1.986021
-1.986021
-1.986021
-1.986021
-1.986021
-1.986021
-1.986021
-1.986021
-1.986021
-1.986021
-1.986021
