-1.986021
-1.975094
-1.968667
-1.984093
-1.986021
-1.986021
-1.986021
-1.986021
-1.986021
-1.974452
-1.986021
-1.986021
-1.976380
-1.986021
-1.986021
-1.986021
-1.984735
-1.968667
-1.968667
-1.985378
-1.986021
-1.986021
-1.986021
-1.986021
-1.986021
-1.986021
-1.986021
-1.986021
-1.986021
-1.986021
-1.986021
-1.986021
-1.980355
-1.968667
-1.977166
-1.986021
-1.960312
-1.887041
-1.899895
-1.934126
-1.959312
-1.962978
-1.948838
-1.942315
-1.941506
-1.926866
-1.941673
-1.963764
-1.986021
-1.986021
-1.986021
-1.986021
-1.986021
-1.986021
-1.986021
-1.986021
-1.986021
-1.986021
-1.986021
-1.982022
-1.933317
-1.955836
-1.973166
-1.983355
-1.986021
-1.986021
-1.986021
-1.981855
-1.968667
-1.980689
-1.977023
-1.986021
-1.985069
-1.960955
-1.974452
-1.986021
-1.986021
-1.986021
-1.986021
-1.986021
-1.986021
-1.986021
-1.986021
-1.986021
-1.986021
-1.986021
-1.986021
-1.956884
-1.907608
-1.890612
-1.944029
-1.984878
-1.970024
-1.944886
-1.933460
-1.967667
-1.984093
-1.962597
-1.923319
-1.931175
-1.939744
-1.927533
-1.928175
-1.954599
-1.986021
-1.986021
-1.986021
-1.986021
-1.986021
-1.986021
-1.986021
-1.986021
-1.986021
-1.986021
-1.986021
-1.986021
-1.960312
-1.942173
-1.926461
-1.890254
-1.908608
-1.968881
-1.953694
-1.907703
-1.873044
-1.879828
-1.895015
-1.909679
-1.951956
-1.974357
-1.980022
-1.986021
-1.986021
-1.986021
-1.986021
-1.986021
-1.986021
-1.986021
-1.986021
-1.986021
-1.975737
-1.967405
-1.973071
-1.964597
-1.950861
-1.891278
-1.806486
-1.427086
-1.419801
-1.202322
-1.111601
-0.982770
-0.884671
-0.845726
-0.914332
-1.065420
-1.398425
-1.689533
-1.913607
-1.985545
-1.954836
-1.954741
-1.955551
-1.971786
-1.983736
-1.986021
-1.986021
-1.986021
-1.970595
-1.923533
-1.953028
-1.953884
-1.923319
-1.047995
-0.048839
1.494065
1.878559
2.084374
2.071805
2.090230
2.095515
2.027100
2.086802
2.007247
1.225333
-0.030914
-0.987865
-1.924819
-1.940816
-1.952599
-1.937816
-1.972024
-1.982593
-1.986021
-1.986021
-1.986021
-1.964811
-1.955170
-1.964263
-1.938173
-1.164662
1.384015
2.016603
2.293356
2.423115
2.301616
2.423925
2.310376
2.281835
2.355796
2.317042
2.199637
2.322541
2.031362
1.275823
-0.976153
-1.811627
-1.959312
-1.962811
-1.942696
-1.986021
-1.986021
-1.986021
-1.986021
-1.934603
-1.956931
-1.909846
-1.981450
-1.264999
1.273966
2.168858
2.376292
2.259434
2.137935
1.803193
1.625015
1.228618
0.764188
0.015814
-0.012918
1.319433
2.243723
2.173714
0.510334
-1.263999
-1.978451
-1.802486
-1.960026
-1.955170
-1.986021
-1.986021
-1.986021
-1.939744
-1.947457
-1.934603
-1.934603
-1.674298
-0.782192
-0.205665
0.495766
0.148478
-0.275722
-0.684926
-0.892955
-0.947373
-1.014216
-1.377143
-0.595801
1.371375
2.273336
2.340823
0.589175
-1.177255
-1.884470
-1.781205
-1.969310
-1.975737
-1.986021
-1.986021
-1.986021
-1.956455
-1.964144
-1.969310
-1.956455
-1.930104
-1.908608
-1.845764
-1.382285
-1.680773
-1.759566
-1.849691
-1.704554
-0.941588
-0.076524
0.734170
1.670743
2.400930
2.352320
2.127651
0.424756
-1.071372
-1.566962
-1.886969
-1.903347
-1.971738
-1.984688
-1.968024
-1.923676
-1.984735
-1.984735
-1.985688
-1.984735
-1.958384
-1.966096
-1.909893
-1.958788
-1.935364
-1.898181
-1.076751
0.465248
1.442075
2.127913
2.325350
2.334181
2.289190
2.394383
2.401453
1.679123
0.147693
-0.928519
-1.878900
-1.977451
-1.978879
-1.977356
-1.971881
-1.931389
-1.976380
-1.986021
-1.986021
-1.977451
-1.959669
-1.933317
-1.968881
-1.927533
-1.874472
-1.708363
0.006792
1.909767
2.169214
2.328397
2.325254
2.397168
2.321541
2.237344
2.211634
2.090659
1.937404
0.958101
-1.018858
-1.909036
-1.917463
-1.957169
-1.979594
-1.968667
-1.968667
-1.979594
-1.986021
-1.970595
-1.951313
-1.924986
-1.966739
-1.917915
-1.963169
-1.848477
0.002103
2.137078
2.262267
2.128818
1.512942
0.427137
-0.382677
-0.506914
-0.328640
0.276476
1.919479
1.968184
0.571203
-0.992102
-1.961240
-1.981522
-1.986021
-1.968667
-1.968667
-1.984831
-1.986021
-1.970595
-1.958122
-1.975261
-1.914893
-1.951433
-1.935936
-1.905037
-1.583150
-0.734392
-0.567306
-0.954228
-1.351196
-1.643590
-1.763161
-1.831885
-1.869901
-1.537111
0.508096
2.103299
1.882034
0.093013
-1.604598
-1.939102
-1.952504
-1.926247
-1.966739
-1.982450
-1.976308
-1.970595
-1.964954
-1.958526
-1.981736
-1.933389
-1.971310
-1.856190
-1.937173
-1.861046
-1.736642
-1.854047
-1.893325
-1.926890
-1.891111
-1.910179
-1.975737
-1.970024
-0.851749
1.728303
2.275693
0.609814
-1.268951
-1.917392
-1.918820
-1.922391
-1.983450
-1.985545
-1.986021
-1.986021
-1.982784
-1.930104
-1.890040
-1.835384
-1.837146
-1.760209
-1.832695
-1.943077
-1.944743
-1.978784
-1.979832
-1.982879
-1.931865
-1.950909
-1.905037
-1.974833
-1.142286
1.672172
2.406024
0.674206
-1.282948
-1.959383
-1.950171
-1.986021
-1.975737
-1.984116
-1.986021
-1.953456
-1.880804
-1.845311
-1.923248
-1.910512
-1.933627
-1.864545
-1.881827
-1.944196
-1.949457
-1.957074
-1.961264
-1.951742
-1.908870
-1.814603
-1.921319
-1.626284
0.028074
2.087374
2.248389
0.509810
-1.651017
-1.955813
-1.935888
-1.986021
-1.986021
-1.972952
-1.977451
-1.975737
-1.947886
-1.913607
-1.926890
-1.653731
-1.756353
-1.874186
-1.969738
-1.943172
-1.889612
-1.910179
-1.863046
-1.908893
-1.966525
-1.825767
-1.525185
0.430421
1.930334
2.282977
1.360448
-0.537098
-1.890897
-1.971453
-1.969310
-1.986021
-1.986021
-1.968667
-1.986021
-1.956313
-1.834051
-1.724216
-0.903096
0.362816
0.309374
-0.253227
-1.146809
-1.778729
-1.939744
-1.973642
-1.973642
-1.607240
-0.848131
0.439539
1.412510
2.348702
2.379434
1.775508
-0.430143
-1.825744
-1.962454
-1.968358
-1.973404
-1.986021
-1.986021
-1.983402
-1.983355
-1.948314
-1.939935
-1.583792
0.150049
1.605114
1.935547
1.607042
1.109333
0.833341
0.986167
1.090051
1.253970
1.382301
1.627157
2.019626
2.261553
2.268980
1.446336
0.106344
-1.488169
-1.947695
-1.977808
-1.968667
-1.968667
-1.968667
-1.959026
-1.981022
-1.980165
-1.964168
-1.943458
-1.821411
-0.386700
1.796218
2.195138
2.297117
2.188496
2.090230
2.087160
2.179641
2.325754
2.384528
2.380029
2.241843
1.746299
0.618241
-0.718062
-1.635734
-1.960312
-1.909036
-1.926033
-1.986021
-1.986021
-1.986021
-1.956455
-1.980546
-1.982117
-1.971453
-1.957646
-1.963073
-1.825339
-0.910761
0.990237
1.803502
2.179474
2.415617
2.335824
2.178474
2.011937
1.739658
0.953578
-0.282673
-1.182825
-1.647875
-1.939435
-1.971595
-1.957717
-1.956217
-1.946600
-1.986021
-1.986021
-1.986021
-1.977666
-1.986021
-1.972357
-1.943029
-1.873377
-1.698603
-1.920320
-1.808723
-1.032141
-0.458257
0.055568
0.419614
0.440919
0.255814
0.001293
-0.348922
-0.890051
-1.567010
-1.860475
-1.960931
-1.867402
-1.947029
-1.959788
-1.955694
-1.970024
-1.986021
-1.986021
-1.986021
-1.986021
-1.986021
-1.970096
-1.982379
-1.897824
-1.936745
-1.929675
-1.707220
-1.976380
-1.951956
-1.831552
-1.617666
-1.594171
-1.652731
-1.787846
-1.972738
-1.948957
-1.955099
-1.950028
-1.950457
-1.967167
-1.950028
-1.946600
-1.946029
-1.931175
-1.986021
-1.986021
-1.986021
-1.986021
-1.986021
-1.981522
-1.968667
-1.968667
-1.967977
-1.925961
-1.983355
-1.950671
-1.974237
-1.976380
-1.964168
-1.966668
-1.960955
-1.932674
-1.917892
-1.882875
-1.933865
-1.986021
-1.969310
-1.986021
-1.986021
-1.986021
-1.986021
-1.986021
-1.986021
-1.986021
-1.986021
-1.986021
-1.986021
-1.986021
-1.976308
-1.968667
-1.978927
-1.975094
-1.973166
-1.979594
-1.975309
-1.986021
-1.986021
-1.986021
-1.982807
-1.954527
-1.958669
-1.951313
-1.946791
-1.964383
-1.985378
-1.986021
-1.986021
-1.986021
-1.986021
-1.986021
-1.986021
-1.986021
-1.986021
-1.986021
-1.986021
-1.986021
-1.986021
-1.986021
-1.986021
-1.986021
-1.968667
-1.986021
-1.974452
-1.986021
-1.986021
