-1.986021
-1.986021
-1.986021
-1.986021
-1.986021
-1.986021
-1.986021
-1.986021
-1.986021
-1.986021
-1.986021
-1.986021
-1.986021
-1.986021
-1.986021
-1.986021
-1.984735
-1.968667
-1.974452
-1.986021
-1.986021
-1.986021
-1.986021
-1.986021
-1.986021
-1.986021
-1.986021
-1.986021
-1.986021
-1.986021
-1.986021
-1.986021
-1.986021
-1.986021
-1.986021
-1.986021
-1.986021
-1.986021
-1.973166
-1.973166
-1.976737
-1.980784
-1.986021
-1.964168
-1.964977
-1.982784
-1.983878
-1.967215
-1.986021
-1.986021
-1.986021
-1.986021
-1.986021
-1.986021
-1.986021
-1.986021
-1.986021
-1.986021
-1.986021
-1.986021
-1.986021
-1.986021
-1.986021
-1.986021
-1.986021
-1.986021
-1.947457
-1.959360
-1.967453
-1.986021
-1.986021
-1.972024
-1.986021
-1.986021
-1.981522
-1.985854
-1.980784
-1.986021
-1.986021
-1.983855
-1.970595
-1.986021
-1.986021
-1.986021
-1.986021
-1.986021
-1.986021
-1.986021
-1.986021
-1.970595
-1.970595
-1.986021
-1.986021
-1.986021
-1.970595
-1.984878
-1.986021
-1.983164
-1.970595
-1.980022
-1.986021
-1.986021
-1.984093
-1.985950
-1.986021
-1.986021
-1.986021
-1.985093
-1.984307
-1.986021
-1.986021
-1.986021
-1.968024
-1.968024
-1.968024
-1.968024
-1.968024
-1.959669
-1.966668
-1.975737
-1.986021
-1.986021
-1.978022
-1.884041
-1.720717
-1.610953
-1.566439
-1.551394
-1.701650
-1.937221
-1.968239
-1.847882
-1.954075
-1.939816
-1.948100
-1.976689
-1.986021
-1.986021
-1.986021
-1.986021
-1.978308
-1.953242
-1.935936
-1.966311
-1.968763
-1.936745
-1.944601
-1.911179
-1.568843
-1.558178
-1.232791
-0.956442
-0.665144
-0.396007
-0.209569
-0.179741
-0.268105
-0.987293
-1.599956
-1.886374
-1.973976
-1.926176
-1.961930
-1.970000
-1.986021
-1.986021
-1.986021
-1.986021
-1.933960
-1.939959
-1.963169
-1.938031
-1.922319
-1.962311
-1.735571
-0.968226
-0.153889
0.594531
1.519631
2.130937
2.239486
2.304687
2.306258
2.285548
2.313757
1.931905
0.717935
-0.946016
-1.740070
-1.791060
-1.959740
-1.984164
-1.986021
-1.986021
-1.986021
-1.986021
-1.954527
-1.931389
-1.942411
-1.948314
-1.958503
-1.765994
-0.349921
1.430220
2.254150
2.350035
2.390599
2.147981
1.997249
1.842780
1.798265
1.586403
1.501778
1.860705
1.868418
0.811202
-0.599800
-1.342936
-1.954099
-1.946695
-1.986021
-1.986021
-1.986021
-1.986021
-1.900538
-1.942720
-1.980855
-1.951242
-1.809128
-0.632389
1.142207
2.137935
2.234915
2.260910
1.929430
1.387277
0.034787
-1.086035
-1.651636
-1.840693
-1.747997
-1.511854
-0.443474
0.653829
0.833102
-0.522530
-1.637591
-1.967977
-1.986021
-1.986021
-1.986021
-1.986021
-1.945529
-1.953242
-1.957527
-1.927533
-1.671727
0.443919
2.121010
2.368031
1.271966
-0.028915
-1.258453
-1.555607
-1.693580
-1.778848
-1.929675
-1.923676
-1.884256
-1.916821
-1.731501
0.638879
1.326813
0.730790
-1.078275
-1.878471
-1.986021
-1.986021
-1.986021
-1.986021
-1.973809
-1.966025
-1.928771
-1.882970
-1.450867
0.979597
2.169143
1.788553
-1.233458
-1.806914
-1.940125
-1.767803
-1.913178
-1.903418
-1.924367
-1.916606
-1.963406
-1.851691
-1.415707
1.311363
1.945855
1.676885
-0.560260
-1.698103
-1.986021
-1.986021
-1.986021
-1.986021
-1.953884
-1.969477
-1.893468
-1.975166
-1.490192
1.055153
2.001534
1.639392
-1.621713
-1.878900
-1.979974
-1.921367
-1.947957
-1.810961
-1.947124
-1.939744
-1.964597
-1.449391
-0.419050
1.673243
2.128032
1.848208
-0.708302
-1.879042
-1.986021
-1.986021
-1.986021
-1.986021
-1.953242
-1.960955
-1.912821
-1.961383
-1.651874
0.649235
1.979181
2.069449
0.039072
-0.723061
-1.353577
-1.600098
-1.536754
-1.372144
-1.183611
-0.699923
0.134695
0.998521
1.635750
2.309329
2.320041
1.381016
-0.993506
-1.951385
-1.977451
-1.986021
-1.986021
-1.986021
-1.968667
-1.949290
-1.953051
-1.855833
-1.718075
-0.667048
1.515917
2.279621
2.366437
1.676242
0.698177
0.295282
0.417638
0.844172
1.572644
2.061236
2.365699
2.189806
2.287048
2.339561
2.230821
0.663375
-1.521710
-1.986021
-1.948314
-1.986021
-1.986021
-1.986021
-1.982807
-1.954527
-1.970857
-1.946957
-1.896658
-1.690366
0.062638
1.729208
2.226084
2.336109
2.299141
2.262315
2.246413
2.124105
2.023030
2.356605
1.944641
1.683384
1.815714
2.403453
2.057475
0.160619
-1.877828
-1.914797
-1.986021
-1.986021
-1.986021
-1.986021
-1.966739
-1.986021
-1.968596
-1.949171
-1.868902
-1.822054
-1.771778
-1.028071
0.217536
1.514275
1.986323
1.899055
1.487709
0.606100
-0.280007
-0.640149
-1.072276
-0.654146
1.014875
2.358033
1.750442
-0.245300
-1.907465
-1.944029
-1.972309
-1.986021
-1.986021
-1.986021
-1.952599
-1.979594
-1.986021
-1.986021
-1.973785
-1.890207
-1.982022
-1.939435
-1.802891
-1.897967
-1.840764
-1.961336
-1.950956
-1.932079
-1.868188
-1.947457
-1.934031
-1.286400
1.205766
2.331111
1.375327
-0.685140
-1.930770
-1.886374
-1.986021
-1.986021
-1.986021
-1.986021
-1.980879
-1.984116
-1.982855
-1.941244
-1.890802
-1.836313
-1.900824
-1.944077
-1.761471
-1.926675
-1.943910
-1.970595
-1.903252
-1.872401
-1.801701
-1.920320
-1.877709
-0.624295
1.629752
2.268433
0.483768
-1.258881
-1.962597
-1.954027
-1.964311
-1.986021
-1.986021
-1.986021
-1.986021
-1.986021
-1.984521
-1.964811
-1.960097
-1.929889
-1.939744
-1.936317
-1.806486
-1.959026
-1.908037
-1.898396
-1.964168
-1.951313
-1.970167
-1.941030
-1.617952
1.055153
2.354320
1.919836
-0.332068
-1.788061
-1.940601
-1.929247
-1.986021
-1.986021
-1.986021
-1.986021
-1.969310
-1.963121
-1.985854
-1.968810
-1.975094
-1.982974
-1.977451
-1.962168
-1.983545
-1.962026
-1.966025
-1.918534
-1.985307
-1.915321
-1.971881
-1.937459
-0.613154
1.709212
2.424163
0.984072
-0.937089
-1.944601
-1.911274
-1.931437
-1.911750
-1.986021
-1.986021
-1.986021
-1.986021
-1.986021
-1.986021
-1.986021
-1.986021
-1.986021
-1.986021
-1.986021
-1.985378
-1.957098
-1.952266
-1.928937
-1.951385
-1.917939
-1.899086
-1.919320
0.117032
1.896031
2.348107
0.070851
-1.557369
-1.933460
-1.926580
-1.977404
-1.976880
-1.986021
-1.986021
-1.986021
-1.986021
-1.986021
-1.986021
-1.986021
-1.986021
-1.986021
-1.986021
-1.986021
-1.985378
-1.957098
-1.945815
-1.936245
-1.932460
-1.971095
-1.785704
-1.881685
0.952388
1.968469
2.079875
-0.479038
-1.833052
-1.791060
-1.966525
-1.982022
-1.986021
-1.986021
-1.986021
-1.986021
-1.986021
-1.986021
-1.986021
-1.986021
-1.986021
-1.986021
-1.986021
-1.986021
-1.985378
-1.957098
-1.972119
-1.962621
-1.982307
-1.959336
-1.926342
-1.860832
0.956863
1.906196
1.255470
-1.184087
-1.883661
-1.904537
-1.986021
-1.968024
-1.986021
-1.986021
-1.986021
-1.986021
-1.986021
-1.986021
-1.986021
-1.986021
-1.986021
-1.986021
-1.986021
-1.986021
-1.985378
-1.957098
-1.949838
-1.957098
-1.948886
-1.877900
-1.928175
-1.726716
0.736955
1.886795
0.677872
-1.686319
-1.903680
-1.849977
-1.952194
-1.986021
-1.970024
-1.986021
-1.986021
-1.986021
-1.986021
-1.986021
-1.986021
-1.986021
-1.986021
-1.986021
-1.986021
-1.986021
-1.985450
-1.960312
-1.973238
-1.985878
-1.965454
-1.958098
-1.940816
-1.946386
-0.854034
0.403570
-0.275079
-1.763637
-1.958598
-1.907179
-1.969453
-1.955741
-1.986021
-1.986021
-1.986021
-1.986021
-1.986021
-1.986021
-1.986021
-1.986021
-1.986021
-1.986021
-1.986021
-1.986021
-1.986021
-1.986021
-1.981522
-1.961883
-1.961740
-1.967525
-1.927199
-1.941530
-1.653969
-1.288090
-1.629093
-1.874472
-1.965454
-1.937173
-1.982784
-1.986021
-1.986021
-1.986021
-1.986021
-1.986021
-1.986021
-1.986021
-1.986021
-1.986021
-1.986021
-1.986021
-1.986021
-1.986021
-1.986021
-1.986021
-1.976975
-1.986021
-1.986021
-1.944625
-1.842502
-1.890826
-1.977499
-1.948600
-1.949600
-1.974785
-1.943458
-1.977522
-1.986021
-1.968667
-1.986021
-1.986021
-1.986021
-1.986021
-1.986021
-1.986021
-1.986021
-1.986021
-1.986021
-1.986021
-1.986021
-1.986021
-1.986021
-1.986021
-1.986021
-1.986021
