-1.986021
-1.986021
-1.986021
-1.986021
-1.977023
-1.986021
-1.986021
-1.986021
-1.986021
-1.986021
-1.986021
-1.986021
-1.986021
-1.986021
-1.986021
-1.986021
-1.986021
-1.986021
-1.986021
-1.986021
-1.986021
-1.986021
-1.986021
-1.986021
-1.986021
-1.986021
-1.986021
-1.986021
-1.986021
-1.986021
-1.986021
-1.986021
-1.977023
-1.963216
-1.949243
-1.951266
-1.963930
-1.957741
-1.964168
-1.964168
-1.975094
-1.986021
-1.986021
-1.975094
-1.975094
-1.975094
-1.986021
-1.986021
-1.986021
-1.986021
-1.986021
-1.986021
-1.986021
-1.986021
-1.986021
-1.986021
-1.986021
-1.986021
-1.986021
-1.986021
-1.966334
-1.933960
-1.920463
-1.923676
-1.938459
-1.935460
-1.938459
-1.950362
-1.951313
-1.964168
-1.964168
-1.951313
-1.952266
-1.967334
-1.968667
-1.968667
-1.968667
-1.971524
-1.985354
-1.986021
-1.986021
-1.986021
-1.986021
-1.986021
-1.986021
-1.986021
-1.986021
-1.986021
-1.959669
-1.947100
-1.932460
-1.939102
-1.951313
-1.950028
-1.951313
-1.951313
-1.951313
-1.954170
-1.966739
-1.966739
-1.966739
-1.957241
-1.953242
-1.953242
-1.953242
-1.956669
-1.970310
-1.986021
-1.986021
-1.986021
-1.986021
-1.986021
-1.986021
-1.986021
-1.986021
-1.986021
-1.959669
-1.941078
-1.926961
-1.941030
-1.951313
-1.951313
-1.951313
-1.951313
-1.973666
-1.979213
-1.986021
-1.986021
-1.984735
-1.962787
-1.948314
-1.934269
-1.938911
-1.953170
-1.967334
-1.986021
-1.986021
-1.986021
-1.986021
-1.986021
-1.986021
-1.980546
-1.978356
-1.982736
-1.958693
-1.962216
-1.938459
-1.948029
-1.908798
-1.953028
-1.940149
-1.955884
-1.903537
-1.931698
-1.891897
-1.900824
-1.902347
-1.911631
-1.895182
-1.885184
-1.881161
-1.952599
-1.969072
-1.978308
-1.985735
-1.985354
-1.985069
-1.986021
-1.972524
-1.977522
-1.986021
-1.950028
-1.851048
-1.970024
-1.905251
-1.221460
-0.853820
-0.667143
-0.435976
0.062924
-0.005562
0.055211
0.240602
0.157262
0.211108
0.137480
-0.474325
-1.476981
-1.655588
-1.918963
-1.901324
-1.974452
-1.960097
-1.971524
-1.984593
-1.986021
-1.968667
-1.964168
-1.965549
-1.850048
-1.888517
-1.736119
-0.438689
0.590580
1.035943
1.233617
1.511347
1.816166
2.042026
2.325469
2.295618
2.171071
2.066783
1.967945
1.562908
0.818962
-0.242491
-1.359933
-1.856999
-1.909036
-1.963169
-1.975737
-1.986021
-1.986021
-1.986021
-1.964977
-1.985069
-1.847763
-1.743974
-0.644815
1.458715
2.172595
2.407476
2.261125
2.066402
2.164263
2.207493
2.237558
2.295689
2.113369
1.999035
1.936738
1.991393
2.410166
2.054738
0.240745
-1.119695
-1.764470
-1.970595
-1.959360
-1.962716
-1.986021
-1.986021
-1.986021
-1.943172
-1.862617
-1.010789
0.799990
2.240557
2.360747
2.026743
1.288035
0.898970
0.728219
0.653662
0.615741
0.309374
-0.378559
-1.138477
-1.241528
-0.133037
1.390657
1.767081
1.959685
0.749214
-0.935161
-1.948743
-1.905894
-1.894539
-1.986021
-1.986021
-1.973166
-1.947315
-1.877043
-0.633174
1.529629
2.239343
1.796480
0.495742
-0.812186
-1.326201
-1.588768
-1.738999
-1.771040
-1.742760
-1.839336
-1.904299
-1.950409
-1.936317
-1.426610
0.335036
2.199065
2.055833
0.041738
-1.854047
-1.896039
-1.966739
-1.986021
-1.969953
-1.979117
-1.953289
-1.923105
-0.330235
1.842637
2.378743
0.602172
-1.038592
-1.928604
-1.974166
-1.980784
-1.962883
-1.985307
-1.983212
-1.958526
-1.941197
-1.978927
-1.928175
-1.858523
-1.339722
1.787863
2.331920
0.997379
-1.795202
-1.896039
-1.966739
-1.986021
-1.986021
-1.969025
-1.945529
-1.781848
0.326371
2.148005
2.001034
-0.715705
-1.634806
-1.971881
-1.878900
-1.937673
-1.948314
-1.981022
-1.973166
-1.982593
-1.943172
-1.965668
-1.973166
-1.919177
-1.886612
1.110213
2.266623
1.780221
-1.542110
-1.896039
-1.966739
-1.986021
-1.965454
-1.953242
-1.978689
-1.532112
0.929226
2.372888
1.768366
-1.555941
-1.982688
-1.945315
-1.946219
-1.986021
-1.969167
-1.980784
-1.980784
-1.918463
-1.985307
-1.897682
-1.912536
-1.924200
-1.965073
0.803132
2.189211
1.935785
-1.461555
-1.896039
-1.966739
-1.986021
-1.979594
-1.962144
-1.975547
-1.183325
1.486971
2.275479
1.262468
-1.899491
-1.944458
-1.959455
-1.986021
-1.920558
-1.922034
-1.983402
-1.971881
-1.953028
-1.985307
-1.967334
-1.959669
-1.965049
-1.802724
1.252470
2.292904
1.660317
-1.524399
-1.896039
-1.966739
-1.986021
-1.966739
-1.976023
-1.954956
-1.149404
1.945688
2.208349
0.840696
-1.964311
-1.937745
-1.943601
-1.960026
-1.949671
-1.963525
-1.971667
-1.968524
-1.949814
-1.950314
-1.954813
-1.973166
-1.907751
-1.526471
1.835210
2.295189
0.891115
-1.855976
-1.915392
-1.919534
-1.941673
-1.986021
-1.931222
-1.958979
-1.314156
2.076566
2.162549
0.689155
-1.909203
-1.902323
-1.955598
-1.963359
-1.862236
-1.947886
-1.968739
-1.949885
-1.973452
-1.830695
-1.887660
-1.713933
-1.901800
-0.698161
2.178641
2.308306
-0.357277
-1.983736
-1.986021
-1.978784
-1.986021
-1.973809
-1.956408
-1.963573
-1.295231
1.599282
2.275717
1.393728
-1.807319
-1.970214
-1.909322
-1.933555
-1.939887
-1.883970
-1.916892
-1.896468
-1.896396
-1.978784
-1.640019
-1.785704
-0.503010
1.657960
2.242200
1.097502
-0.902144
-1.972809
-1.949385
-1.953289
-1.986021
-1.939744
-1.915749
-1.952599
-1.662086
0.606957
2.333967
1.709664
-0.927877
-1.806057
-1.932032
-1.895396
-1.968667
-1.820840
-1.807342
-1.826196
-1.940387
-1.783990
-1.430918
-0.343209
1.695096
2.276978
1.871632
-0.377487
-1.657587
-1.977666
-1.902252
-1.933746
-1.986021
-1.901181
-1.984164
-1.911131
-1.968167
-0.402506
2.033361
2.147290
0.706890
-1.038450
-1.923034
-1.983188
-1.984093
-1.868687
-1.705030
-1.786728
-1.984521
-1.454723
0.186804
1.578976
2.384576
2.108536
0.565466
-1.564487
-1.943863
-1.939387
-1.941673
-1.963359
-1.986021
-1.968667
-1.940149
-1.957931
-1.934031
-1.389617
0.611528
2.125009
2.119439
1.487661
0.215965
-0.560212
-0.730750
-0.705421
-0.633317
-0.078714
0.751071
1.753274
2.245794
2.089516
1.667078
0.330989
-1.613524
-1.960978
-1.875924
-1.973452
-1.986021
-1.986021
-1.986021
-1.933960
-1.969025
-1.955027
-1.843336
-1.932960
-1.191895
1.272395
2.084946
2.269194
2.275907
2.172357
2.201708
2.255126
2.240628
2.369460
2.367175
2.183712
2.015674
0.946104
-0.800545
-1.890040
-1.956455
-1.959740
-1.964525
-1.938031
-1.986021
-1.986021
-1.986021
-1.978308
-1.980546
-1.966192
-1.875829
-1.936864
-1.773778
-1.164472
-0.036056
1.559052
2.268623
2.373649
2.385481
2.381743
2.422116
2.422640
2.062950
1.176081
-0.409267
-1.324440
-1.867473
-1.953837
-1.915321
-1.980498
-1.984688
-1.933460
-1.986021
-1.986021
-1.986021
-1.986021
-1.957741
-1.945529
-1.968667
-1.886707
-1.877614
-1.979022
-1.807200
-1.701769
-1.534612
-1.434275
-1.203893
-1.313727
-1.474790
-1.553346
-1.666514
-1.792703
-1.922272
-1.974452
-1.959360
-1.951123
-1.961883
-1.942458
-1.967691
-1.978022
-1.986021
-1.986021
-1.986021
-1.955170
-1.979094
-1.956098
-1.970381
-1.912893
-1.901752
-1.973380
-1.951742
-1.922748
-1.984735
-1.892040
-1.913178
-1.965239
-1.957884
-1.975166
-1.966953
-1.953599
-1.982165
-1.938459
-1.952313
-1.963311
-1.949814
-1.961240
-1.962740
-1.958598
-1.986021
-1.986021
-1.986021
-1.986021
-1.983188
-1.968667
-1.964668
-1.966501
-1.915940
-1.882542
-1.934603
-1.899895
-1.931603
-1.964216
-1.943267
-1.966096
-1.976642
-1.937364
-1.955813
-1.938459
-1.938459
-1.961597
-1.973166
-1.964168
-1.968667
-1.979617
-1.983688
-1.986021
-1.986021
-1.986021
-1.986021
-1.986021
-1.986021
-1.983188
-1.975094
-1.980760
-1.981831
-1.957741
-1.986021
-1.968667
-1.980236
-1.986021
-1.969953
-1.974738
-1.986021
-1.986021
-1.981165
-1.975094
-1.975094
-1.986021
-1.986021
-1.975094
-1.986021
-1.986021
-1.986021
-1.986021
-1.986021
-1.986021
-1.986021
-1.986021
-1.986021
-1.986021
-1.986021
-1.986021
-1.966096
-1.951313
-1.968667
-1.968667
-1.980236
-1.986021
-1.986021
