-1.951313
-1.986021
-1.942958
-1.984093
-1.960312
-1.971238
-1.959026
-1.986021
-1.952599
-1.974452
-1.975737
-1.967382
-1.986021
-1.986021
-1.986021
-1.976380
-1.967382
-1.963525
-1.986021
-1.935888
-1.937173
-1.964811
-1.936531
-1.968024
-1.986021
-1.986021
-1.986021
-1.986021
-1.968667
-1.986021
-1.965073
-1.986021
-1.980760
-1.977308
-1.976166
-1.970643
-1.986021
-1.981736
-1.978332
-1.986021
-1.971524
-1.973166
-1.978403
-1.976308
-1.930437
-1.940244
-1.968881
-1.924890
-1.951504
-1.981022
-1.976713
-1.971595
-1.963169
-1.986021
-1.986021
-1.986021
-1.960312
-1.977927
-1.966977
-1.986021
-1.971476
-1.954599
-1.971738
-1.975285
-1.980736
-1.951742
-1.966192
-1.980855
-1.984021
-1.985188
-1.949576
-1.960740
-1.968358
-1.948552
-1.909965
-1.979617
-1.952337
-1.927461
-1.980308
-1.979355
-1.982022
-1.982688
-1.973428
-1.986021
-1.986021
-1.976308
-1.974595
-1.972309
-1.962811
-1.894039
-1.962026
-1.983664
-1.924176
-1.980879
-1.977522
-1.983807
-1.985164
-1.960526
-1.979379
-1.981308
-1.946458
-1.946172
-1.936531
-1.937816
-1.932246
-1.934603
-1.970595
-1.967167
-1.984307
-1.973166
-1.958955
-1.986021
-1.986021
-1.969834
-1.964811
-1.931389
-1.922224
-1.495024
-0.649647
0.068637
0.301757
-0.077976
-0.010085
0.192779
0.558610
0.799466
0.427636
-0.015132
-0.615321
-0.883052
-1.088130
-1.536849
-1.799582
-1.856975
-1.950647
-1.860046
-1.892325
-1.973166
-1.957741
-1.986021
-1.941673
-1.956479
-1.944196
-1.943529
-1.923843
0.064947
1.438362
2.029552
2.192091
1.852778
1.965113
2.113702
2.135293
2.298260
2.121248
1.995321
1.800003
1.986370
1.843137
1.554624
0.185399
-1.084916
-1.519258
-1.126408
-1.469268
-1.908227
-1.979260
-1.966096
-1.972524
-1.983593
-1.912536
-1.821697
-1.540325
1.335525
2.290047
2.402524
2.169572
1.844637
2.123509
2.325897
2.062736
1.655461
1.444932
1.548982
1.713021
2.063236
2.102371
1.639321
0.278523
-0.781120
-1.221675
-1.403924
-1.577460
-1.859689
-1.970881
-1.964811
-1.965454
-1.982212
-1.907037
-1.851905
-1.355624
1.411510
2.178141
2.050619
0.808203
-0.084189
-0.013632
0.030811
-0.075048
-0.485585
-0.541621
-0.511460
-0.331640
-0.091997
-0.065122
-0.321832
-0.820446
-1.185468
-1.632759
-1.933508
-1.839907
-1.977023
-1.983402
-1.978951
-1.986021
-1.957741
-1.847382
-1.970310
-1.519091
1.270038
2.036241
1.460571
-0.552309
-1.470982
-1.315680
-1.296517
-1.410851
-1.675821
-1.513473
-1.807485
-1.959955
-1.950409
-1.911893
-1.941982
-1.836051
-1.917178
-1.961883
-1.940744
-1.924319
-1.986021
-1.979832
-1.969310
-1.986021
-1.976594
-1.898610
-1.957741
-1.368788
1.536556
2.250198
1.888771
0.901969
0.698011
1.117926
1.300246
1.509133
1.530343
1.436076
0.885687
-0.239729
-1.523685
-1.858761
-1.611953
-1.897324
-1.957741
-1.939744
-1.923890
-1.961597
-1.951313
-1.978737
-1.986021
-1.970595
-1.959026
-1.897705
-1.784204
-1.185301
1.873631
2.372745
2.168024
1.827474
1.882986
2.238129
2.378077
2.341894
2.398406
2.398406
2.216634
1.661245
1.551101
0.457844
-0.804378
-1.856285
-1.942601
-1.982403
-1.955741
-1.961811
-1.970000
-1.973190
-1.986021
-1.982165
-1.973000
-1.984069
-1.952456
-1.449724
1.512942
2.323755
2.291833
2.268909
2.434447
1.715758
0.552254
0.231890
0.252029
0.801918
1.423293
1.970374
2.360295
1.994607
1.742943
0.252576
-1.514687
-1.875924
-1.976451
-1.980308
-1.973166
-1.952599
-1.986021
-1.970595
-1.956884
-1.930889
-1.914035
-1.718075
-0.232731
0.851408
0.575392
-0.005776
-0.243586
-0.562736
-1.181397
-1.510188
-1.308943
-1.063849
-0.709992
-0.288648
0.857050
1.994392
2.307758
1.187912
-0.373845
-1.815127
-1.938102
-1.944886
-1.966025
-1.940387
-1.986021
-1.957741
-1.962978
-1.887303
-1.939673
-1.924200
-1.722241
-0.942945
-1.166019
-1.716456
-1.939744
-1.952599
-1.930270
-1.974380
-1.970548
-1.954836
-1.925319
-1.559726
-0.973415
0.825270
2.063307
1.940451
0.661161
-1.686105
-1.870711
-1.966025
-1.949647
-1.962978
-1.986021
-1.986021
-1.970310
-1.940197
-1.982093
-1.965049
-1.967334
-1.945315
-1.956289
-1.945838
-1.911464
-1.968310
-1.968500
-1.949243
-1.952742
-1.960074
-1.881328
-1.641424
-1.841717
0.080563
1.954377
2.244723
0.980097
-1.347792
-1.919939
-1.973880
-1.938650
-1.986021
-1.986021
-1.959026
-1.986021
-1.916392
-1.900967
-1.896967
-1.901824
-1.960740
-1.880042
-1.931960
-1.946815
-1.976880
-1.940887
-1.951956
-1.913678
-1.874400
-1.927961
-1.851762
-1.637519
0.272525
2.093730
2.180426
0.964314
-1.538682
-1.908037
-1.968024
-1.914035
-1.956455
-1.986021
-1.986021
-1.972690
-1.967691
-1.918749
-1.981355
-1.865021
-1.794631
-1.714314
-1.939602
-1.952170
-1.928294
-1.920558
-1.967239
-1.924081
-1.979594
-1.959669
-1.928175
-0.447926
1.697667
2.341537
1.738587
-0.160388
-1.909274
-1.969358
-1.957241
-1.878685
-1.930270
-1.986021
-1.973809
-1.966739
-1.944982
-1.919748
-1.705935
-0.664311
-0.111755
-0.900525
-1.616952
-1.938459
-1.911393
-1.937173
-1.908679
-1.942601
-1.895468
-0.597515
0.805441
1.737135
2.365460
1.918693
0.250101
-1.563177
-1.973333
-1.925866
-1.973952
-1.922343
-1.952599
-1.986021
-1.945529
-1.986021
-1.935031
-1.930746
-1.457270
0.402570
1.430720
1.098430
0.074136
-0.886956
-1.276878
-1.383999
-0.617011
0.442848
0.942461
1.453215
1.977682
2.384742
1.694881
0.730361
-1.016573
-1.905037
-1.900110
-1.963740
-1.974452
-1.983022
-1.986021
-1.986021
-1.985378
-1.943934
-1.893278
-1.983450
-1.808818
0.318253
1.908624
2.171119
1.865347
1.628680
1.570597
1.502420
1.605971
2.257958
2.416117
2.437732
2.257863
1.395418
-0.123610
-1.286186
-1.817269
-1.960026
-1.981093
-1.969929
-1.986021
-1.986021
-1.986021
-1.986021
-1.986021
-1.976975
-1.943029
-1.885612
-1.921796
-1.305777
-0.024773
1.381063
1.960257
2.230488
2.224751
2.316090
2.374673
2.162121
1.751536
0.875546
-0.155937
-0.957014
-1.692508
-1.963264
-1.910203
-1.975023
-1.977261
-1.980689
-1.986021
-1.986021
-1.986021
-1.986021
-1.964811
-1.948386
-1.961169
-1.815484
-1.936031
-1.963025
-1.674084
-0.606370
0.147764
0.567537
0.678514
0.756713
0.709580
0.589889
0.000722
-1.088344
-1.885041
-1.925033
-1.905037
-1.936745
-1.963525
-1.983022
-1.986021
-1.986021
-1.982593
-1.986021
-1.986021
-1.986021
-1.980879
-1.968620
-1.811770
-1.690937
-1.910369
-1.913750
-1.860689
-1.966406
-1.951409
-1.859618
-1.841931
-1.826434
-1.868402
-1.836908
-1.879852
-1.970881
-1.826696
-1.930175
-1.946600
-1.941601
-1.894753
-1.946243
-1.983831
-1.986021
-1.970595
-1.986021
-1.986021
-1.986021
-1.968667
-1.970072
-1.959360
-1.742641
-1.947291
-1.939697
-1.953028
-1.898491
-1.928461
-1.963311
-1.960026
-1.944934
-1.940887
-1.978046
-1.914678
-1.972095
-1.936555
-1.966834
-1.893682
-1.943244
-1.966739
-1.951313
-1.966096
-1.986021
-1.986021
-1.986021
-1.986021
-1.986021
-1.986021
-1.966596
-1.974023
-1.980879
-1.962597
-1.957455
-1.933103
-1.970738
-1.979879
-1.941030
-1.949600
-1.953599
-1.937602
-1.938745
-1.976451
-1.939316
-1.934745
-1.963882
-1.982165
-1.907894
-1.951313
-1.960097
-1.985735
-1.986021
-1.972309
-1.986021
-1.986021
-1.986021
-1.986021
-1.986021
-1.986021
-1.986021
-1.986021
-1.986021
-1.972524
-1.961597
-1.951313
-1.951313
-1.951313
-1.951313
-1.951313
-1.951313
-1.951313
-1.951313
-1.951313
-1.951313
-1.951313
-1.951313
-1.951313
-1.968667
-1.983450
-1.986021
-1.986021
-1.986021
-1.986021
-1.986021
-1.986021
-1.986021
-1.986021
-1.986021
-1.986021
-1.986021
-1.972524
-1.961597
-1.951313
-1.951313
-1.951313
-1.951313
-1.951313
-1.951313
-1.951313
-1.951313
-1.951313
-1.951313
-1.951313
-1.951313
-1.951313
-1.968667
-1.983450
-1.986021
-1.986021
-1.986021
-1.986021
-1.986021
-1.986021
-1.986021
-1.986021
-1.986021
-1.986021
-1.986021
-1.972524
-1.961597
-1.951313
-1.951313
-1.951313
-1.951313
