-1.986021
-1.986021
-1.986021
-1.986021
-1.986021
-1.941673
-1.986021
-1.958384
-1.986021
-1.986021
-1.986021
-1.986021
-1.962883
-1.943601
-1.986021
-1.976380
-1.980879
-1.965454
-1.974452
-1.984735
-1.986021
-1.986021
-1.986021
-1.986021
-1.986021
-1.986021
-1.986021
-1.986021
-1.986021
-1.986021
-1.986021
-1.986021
-1.986021
-1.977642
-1.964954
-1.981569
-1.979832
-1.959883
-1.953837
-1.914059
-1.952814
-1.977118
-1.980784
-1.961740
-1.985069
-1.982212
-1.975952
-1.978713
-1.986021
-1.986021
-1.986021
-1.986021
-1.986021
-1.986021
-1.986021
-1.986021
-1.986021
-1.986021
-1.986021
-1.986021
-1.974856
-1.922510
-1.948528
-1.867092
-1.945529
-1.844406
-1.756543
-0.877077
-1.472481
-1.889207
-1.874020
-1.904966
-1.953884
-1.973809
-1.986021
-1.986021
-1.986021
-1.986021
-1.986021
-1.986021
-1.986021
-1.986021
-1.986021
-1.986021
-1.986021
-1.986021
-1.986021
-1.972309
-1.968667
-1.972880
-1.894539
-1.912893
-1.839550
-1.706434
-0.915379
0.900184
-0.334425
-1.831409
-1.927247
-1.942101
-1.967025
-1.958384
-1.980879
-1.985450
-1.986021
-1.986021
-1.986021
-1.986021
-1.986021
-1.986021
-1.986021
-1.986021
-1.986021
-1.986021
-1.986021
-1.970595
-1.964002
-1.941030
-1.933246
-1.847811
-1.908465
-1.445273
0.536233
1.967826
0.645164
-1.800534
-1.847144
-1.977308
-1.979546
-1.947909
-1.974452
-1.984735
-1.986021
-1.986021
-1.986021
-1.986021
-1.986021
-1.986021
-1.986021
-1.986021
-1.953884
-1.976713
-1.982188
-1.968953
-1.943696
-1.917154
-1.955170
-1.724312
-1.937102
-0.054195
1.961899
2.394550
0.782851
-1.853524
-1.755591
-1.982307
-1.960240
-1.975737
-1.979379
-1.985283
-1.986021
-1.986021
-1.986021
-1.984783
-1.982093
-1.982188
-1.986021
-1.968667
-1.982165
-1.981022
-1.986021
-1.982593
-1.933531
-1.972238
-1.886612
-1.936531
-1.147475
1.408867
2.349321
2.400025
0.420352
-1.869544
-1.714004
-1.968453
-1.906680
-1.975737
-1.978951
-1.985235
-1.959026
-1.975523
-1.986021
-1.984164
-1.982593
-1.986021
-1.981022
-1.955170
-1.986021
-1.973166
-1.960312
-1.979736
-1.878043
-1.828291
-1.905251
-1.115172
0.339321
2.200279
2.308639
1.941903
-0.509247
-1.836765
-1.968739
-1.935317
-1.960026
-1.918868
-1.983664
-1.965335
-1.943910
-1.955170
-1.962645
-1.921748
-1.933960
-1.957193
-1.953979
-1.923676
-1.986021
-1.986021
-1.968977
-1.937173
-1.875043
-1.849572
-1.851191
-0.098782
1.723066
2.381743
2.219442
0.562062
-1.348649
-1.888731
-1.778229
-1.863188
-1.982117
-1.933317
-1.983664
-1.937055
-1.904656
-1.944529
-1.986021
-1.968667
-1.976523
-1.925771
-1.958788
-1.969310
-1.974452
-1.978737
-1.971024
-1.907608
-1.896468
-1.907179
-1.132478
1.208336
2.421164
2.381315
1.071007
-1.054280
-1.892825
-1.971238
-1.853405
-1.961597
-1.900752
-1.847192
-1.833694
-1.964383
-1.866045
-1.890254
-1.929889
-1.864974
-1.881256
-1.972952
-1.986021
-1.974452
-1.975737
-1.970000
-1.975642
-1.735785
-1.938364
-1.757352
-0.070049
2.184640
2.384528
2.015174
-0.557903
-1.873996
-1.906037
-1.841050
-1.946315
-1.938602
-1.527375
-0.641315
0.482482
1.211479
1.092026
0.007149
-1.645589
-1.935364
-1.914750
-1.914083
-1.958979
-1.901181
-1.951313
-1.985069
-1.981522
-1.676726
-1.932032
-1.285638
1.096859
2.423711
2.037313
1.030515
-1.917868
-1.978022
-1.951028
-1.929770
-1.640686
-0.635150
1.089932
1.773556
2.219347
2.323374
2.366651
1.957757
0.443228
-1.133050
-1.970881
-1.928794
-1.948909
-1.960955
-1.976380
-1.979951
-1.957741
-1.767493
-1.648446
-0.620510
2.100229
2.343394
2.067663
-0.598371
-1.867973
-1.900324
-1.859189
-1.799844
-0.882314
1.182413
2.308758
2.252483
2.315756
2.336038
2.156788
2.316613
1.649390
-0.564807
-1.895825
-1.939245
-1.970238
-1.922391
-1.957741
-1.986021
-1.976190
-1.918963
-0.984294
0.728528
2.396097
2.159907
0.581939
-1.416993
-1.920606
-1.936555
-1.800915
-0.827230
1.072245
2.292832
2.266814
1.751727
0.820343
-0.204927
0.931987
2.231559
2.177713
0.294116
-1.632592
-1.965192
-1.980784
-1.913393
-1.986021
-1.980784
-1.940578
-1.975523
-0.596229
1.785363
2.383528
1.763987
-0.957228
-1.902466
-1.895468
-1.956455
-1.247884
0.928226
2.194019
2.181283
0.771639
-0.501248
-1.385499
-1.923724
-0.546953
1.931477
2.214372
0.463796
-1.670299
-1.944244
-1.962978
-1.941673
-1.970595
-1.953242
-1.935817
-1.941244
-0.391056
2.293761
2.395669
1.205051
-1.806771
-1.881899
-1.924890
-1.930603
-0.785834
1.967041
2.389670
1.374160
-0.917307
-1.646375
-1.957741
-1.737071
0.151978
2.097015
2.057237
-0.017488
-1.709862
-1.971809
-1.979594
-1.959026
-1.920463
-1.954051
-1.952885
-1.892325
-0.357444
2.375482
2.266909
0.668612
-1.980569
-1.817412
-1.973190
-1.881494
-0.136179
2.242581
1.936214
0.169760
-1.980355
-1.918130
-1.418921
0.291069
1.721162
2.302331
1.253994
-0.782239
-1.976523
-1.938149
-1.968191
-1.968667
-1.980879
-1.975023
-1.959859
-1.738856
-0.322665
2.265790
2.285620
1.037823
-1.779372
-1.833266
-1.793131
-1.879566
0.455702
2.020816
1.970016
-0.719276
-1.743808
-0.763434
0.536900
1.796837
2.325969
1.852993
-0.243657
-1.595100
-1.981022
-1.957693
-1.950028
-1.944244
-1.957098
-1.977451
-1.956241
-1.954527
-0.435761
2.113940
2.286191
1.994178
-0.493821
-1.494334
-1.720574
-1.237029
0.912039
2.143077
2.204350
1.045083
0.830841
1.303674
2.095943
2.331182
1.793005
0.522546
-1.642161
-1.969310
-1.975737
-1.986021
-1.944244
-1.939744
-1.985378
-1.964977
-1.985045
-1.985807
-0.829634
1.400226
2.422021
2.256744
1.472069
1.251399
1.159084
1.295652
1.918551
2.359176
2.392169
2.327682
2.379863
2.400549
1.954543
1.112189
0.102916
-1.301801
-1.969381
-1.949504
-1.971167
-1.986021
-1.962002
-1.968024
-1.975737
-1.971976
-1.975190
-1.981379
-1.673750
-0.741033
1.140779
2.280716
2.408547
2.382600
2.354487
2.363080
2.306187
2.377339
2.374721
2.380315
2.055690
1.234260
0.226677
-1.068634
-1.835123
-1.812056
-1.955360
-1.951052
-1.984093
-1.950575
-1.940387
-1.986021
-1.986021
-1.984593
-1.931532
-1.904395
-1.856047
-1.797559
-0.879244
0.677586
1.374089
1.882558
2.064593
2.177356
2.107727
2.147790
2.011104
1.672600
0.669659
-0.508818
-1.509117
-1.982022
-1.870401
-1.923034
-1.986021
-1.821054
-1.938031
-1.976023
-1.972524
-1.986021
-1.971238
-1.979594
-1.984021
-1.980593
-1.982022
-1.970691
-1.963025
-1.776610
-0.979128
-0.109256
0.241912
0.307113
0.387930
0.346581
0.249172
-0.318642
-1.315894
-1.873520
-1.971238
-1.984378
-1.977261
-1.979451
-1.943863
-1.983355
-1.972880
-1.986021
-1.986021
-1.986021
-1.977666
-1.975094
-1.962311
-1.960026
-1.950028
-1.984783
-1.949171
-1.939078
-1.926437
-1.846120
-1.893016
-1.930080
-1.867616
-1.878424
-1.870568
-1.913036
-1.941744
-1.975547
-1.952385
-1.984759
-1.948743
-1.960026
-1.986021
-1.954361
-1.969096
-1.983855
-1.986021
-1.986021
-1.955170
-1.986021
-1.974595
-1.986021
-1.963169
-1.975237
-1.972309
-1.953813
-1.844549
-1.877400
-1.897824
-1.877900
-1.884898
-1.855761
-1.968881
-1.969310
-1.831766
-1.907751
-1.986021
-1.984164
-1.960883
-1.986021
-1.986021
-1.978594
-1.968881
-1.970595
-1.986021
-1.986021
-1.986021
-1.986021
-1.986021
-1.986021
-1.986021
-1.971238
-1.976023
-1.929913
-1.874353
-1.890254
-1.917249
-1.921415
-1.921748
-1.934603
-1.934603
-1.861903
-1.911750
-1.965549
-1.986021
-1.981688
-1.986021
-1.986021
-1.986021
-1.986021
-1.982022
-1.986021
-1.986021
-1.986021
-1.986021
-1.986021
-1.986021
-1.986021
-1.986021
-1.974119
-1.984593
-1.986021
-1.975094
-1.982379
-1.975094
-1.985212
-1.986021
-1.986021
-1.986021
-1.925319
-1.943934
-1.971857
-1.977451
-1.966977
-1.982212
-1.971095
-1.985069
-1.986021
-1.986021
-1.986021
-1.986021
-1.986021
-1.986021
-1.986021
-1.986021
-1.986021
-1.986021
-1.971238
-1.986021
-1.978951
-1.968667
-1.968667
-1.968667
-1.968667
