-1.986021
-1.986021
-1.986021
-1.986021
-1.986021
-1.986021
-1.986021
-1.986021
-1.969310
-1.986021
-1.871615
-1.863260
-1.960955
-1.919820
-1.976380
-1.839479
-1.852333
-1.953242
-1.986021
-1.986021
-1.986021
-1.986021
-1.986021
-1.986021
-1.986021
-1.986021
-1.986021
-1.986021
-1.986021
-1.986021
-1.986021
-1.986021
-1.986021
-1.986021
-1.986021
-1.986021
-1.968905
-1.982379
-1.986021
-1.975904
-1.919249
-1.924510
-1.942315
-1.960526
-1.896991
-1.884446
-1.956884
-1.973642
-1.986021
-1.986021
-1.986021
-1.986021
-1.986021
-1.986021
-1.986021
-1.986021
-1.986021
-1.986021
-1.986021
-1.986021
-1.986021
-1.986021
-1.986021
-1.986021
-1.968500
-1.952599
-1.923176
-1.973785
-1.894896
-1.949909
-1.948862
-1.873044
-1.964192
-1.975690
-1.986021
-1.981688
-1.986021
-1.986021
-1.986021
-1.986021
-1.986021
-1.986021
-1.986021
-1.986021
-1.986021
-1.986021
-1.986021
-1.986021
-1.986021
-1.986021
-1.986021
-1.986021
-1.967453
-1.924319
-1.931175
-1.985878
-1.868616
-1.837836
-1.778134
-1.860475
-1.894968
-1.842764
-1.929461
-1.983593
-1.986021
-1.986021
-1.986021
-1.986021
-1.986021
-1.986021
-1.986021
-1.986021
-1.986021
-1.986021
-1.986021
-1.986021
-1.986021
-1.986021
-1.986021
-1.986021
-1.967382
-1.910822
-1.957360
-1.776706
-1.218747
-0.619296
-0.264748
-0.436975
-1.168376
-1.707267
-1.956027
-1.977975
-1.986021
-1.986021
-1.986021
-1.986021
-1.986021
-1.986021
-1.986021
-1.986021
-1.971238
-1.975071
-1.972500
-1.932889
-1.889802
-1.779063
-1.771850
-1.880852
-1.121790
-0.245728
0.508049
1.047155
1.115141
1.306460
1.718091
1.611327
1.350927
0.940295
-0.013918
-1.740618
-1.803581
-1.898753
-1.954122
-1.955360
-1.916463
-1.951313
-1.945838
-1.919177
-1.932032
-1.966025
-1.965739
-1.945743
-1.909465
-1.748783
-0.870245
0.466557
1.326598
1.737944
2.127866
2.325468
2.368460
2.398026
2.423163
2.372531
2.400882
2.289119
1.705165
0.066066
-1.553751
-1.921319
-1.812342
-1.919034
-1.934174
-1.961312
-1.964811
-1.947457
-1.986021
-1.973071
-1.952337
-1.868830
-1.759305
-0.727250
0.893471
1.952782
2.280121
2.370817
2.302878
2.331777
2.211420
2.125319
1.655032
1.594401
1.940879
2.017673
2.131079
1.372518
0.148859
-1.315299
-1.961407
-1.928937
-1.957598
-1.964168
-1.982212
-1.975737
-1.986021
-1.958384
-1.985188
-1.947386
-1.871163
0.327323
2.137221
2.337847
2.430733
2.031671
1.218096
1.049797
0.897185
0.672635
-0.025987
-0.151104
0.172331
0.551849
1.138279
2.110322
2.268028
0.466843
-1.434346
-1.842121
-1.889398
-1.959193
-1.986021
-1.986021
-1.974452
-1.963525
-1.978522
-1.895396
-1.702578
0.389930
2.088231
2.326469
2.297332
0.908183
-0.822255
-1.510831
-1.656301
-1.858761
-1.962454
-1.923034
-1.956241
-1.589244
-0.360562
2.156788
2.170286
1.683312
-0.439403
-1.920677
-1.913393
-1.946815
-1.986021
-1.986021
-1.975737
-1.982212
-1.973809
-1.941244
-1.854904
-0.407457
1.607256
2.253198
2.233820
1.160560
-0.071263
-1.058707
-1.816055
-1.871139
-1.937650
-1.842335
-1.812603
-0.648242
0.814130
2.097443
2.242581
1.563479
-0.664596
-1.983545
-1.986021
-1.986021
-1.986021
-1.986021
-1.983450
-1.979117
-1.974119
-1.986021
-1.944862
-1.444225
-0.075905
1.654556
1.994607
2.016031
1.722043
1.173986
0.710722
0.567680
0.163904
0.701224
1.224167
1.736325
1.836924
2.295737
1.555505
0.039572
-1.749568
-1.952075
-1.986021
-1.986021
-1.986021
-1.986021
-1.986021
-1.982450
-1.963454
-1.955170
-1.903109
-1.902252
-1.491120
-0.320570
0.670230
1.513632
2.142577
2.193638
2.160431
2.084589
1.993464
2.204350
2.324540
2.300260
2.289404
2.051024
0.234604
-1.632521
-1.873544
-1.986021
-1.956884
-1.986021
-1.986021
-1.986021
-1.986021
-1.980784
-1.980427
-1.967382
-1.916868
-1.820530
-1.896111
-1.871068
-0.881005
0.247244
1.436767
2.108393
2.385742
2.345417
2.423449
2.362176
2.395050
2.378291
2.137506
1.802050
0.119270
-1.431918
-1.698507
-1.947838
-1.986021
-1.986021
-1.986021
-1.986021
-1.986021
-1.980784
-1.959478
-1.979951
-1.944625
-1.896991
-1.748426
-1.979475
-1.918463
-0.634150
1.037704
2.011508
2.234915
2.180450
1.797623
1.567193
1.893341
1.958281
1.939546
2.081708
1.553172
0.131339
-1.749307
-1.960931
-1.948314
-1.986021
-1.986021
-1.986021
-1.986021
-1.976023
-1.973166
-1.986021
-1.908893
-1.964383
-1.874400
-1.945172
-1.268665
0.373433
1.871132
2.262339
1.634465
0.772353
0.085776
-0.124895
-0.085832
0.143265
0.603530
1.797861
2.176641
1.393870
-1.183897
-1.973952
-1.972309
-1.986021
-1.986021
-1.986021
-1.986021
-1.980070
-1.986021
-1.984878
-1.945481
-1.970024
-1.962026
-1.842740
-0.032723
1.700452
2.407833
1.980086
-0.139178
-1.581388
-1.942220
-1.904966
-1.955789
-1.933460
-0.871745
1.095097
2.299188
1.819999
-0.827183
-1.927699
-1.983736
-1.986021
-1.986021
-1.986021
-1.973809
-1.978332
-1.986021
-1.970595
-1.966834
-1.959716
-1.962168
-1.420063
1.173891
2.347036
1.882058
0.264955
-1.699150
-1.904037
-1.913464
-1.948528
-1.959693
-1.932270
-1.179826
1.045583
2.244318
1.733588
-0.765005
-1.954361
-1.976880
-1.986021
-1.986021
-1.986021
-1.968667
-1.960526
-1.986021
-1.934603
-1.977666
-1.921748
-1.964811
-0.846036
1.320600
2.013032
0.826556
-1.049781
-1.853619
-1.878471
-1.902038
-1.893468
-1.867973
-1.381428
0.000008
1.687383
2.205421
1.306031
-1.279663
-1.959455
-1.965454
-1.986021
-1.986021
-1.986021
-1.968667
-1.953242
-1.986021
-1.909465
-1.969000
-1.962692
-1.972524
-0.405553
1.626966
1.801788
0.779708
-0.892098
-1.555679
-1.756020
-1.513545
-1.121338
-0.579423
0.746620
1.706665
2.125057
1.434910
0.233247
-1.872068
-1.966358
-1.926604
-1.986021
-1.986021
-1.986021
-1.986021
-1.972476
-1.986021
-1.976880
-1.981070
-1.937102
-1.962668
-0.863080
1.437266
2.290904
1.941998
0.964505
0.288450
0.449727
0.486387
1.072007
1.917622
2.349845
2.204136
1.126448
-0.441546
-1.793060
-1.817936
-1.981070
-1.986021
-1.986021
-1.986021
-1.986021
-1.986021
-1.986021
-1.977023
-1.932460
-1.969310
-1.931460
-1.968024
-1.593100
0.488624
1.964184
2.337609
2.419164
2.279549
2.255054
2.261339
2.395669
2.158788
1.690454
0.395286
-1.100128
-1.787346
-1.981308
-1.791060
-1.965525
-1.986021
-1.986021
-1.986021
-1.986021
-1.986021
-1.986021
-1.980855
-1.935245
-1.976428
-1.889112
-1.934960
-1.948647
-0.884980
0.410283
1.717520
2.347464
2.209563
1.894056
1.811310
1.608684
0.890876
-0.400173
-1.843336
-1.957217
-1.920463
-1.948386
-1.925581
-1.986021
-1.986021
-1.986021
-1.986021
-1.986021
-1.986021
-1.982926
-1.986021
-1.955170
-1.964977
-1.933365
-1.927533
-1.944244
-1.851096
-1.880613
-1.115577
-0.042769
0.397642
0.435682
-0.425287
-1.307229
-1.865045
-1.851096
-1.847834
-1.825791
-1.932793
-1.972524
-1.986021
-1.977356
-1.986021
-1.986021
-1.986021
-1.986021
-1.986021
-1.970595
-1.986021
-1.958598
-1.924319
-1.974595
-1.968882
-1.986021
-1.956313
-1.955170
-1.859761
-1.916321
-1.951742
-1.983164
-1.920320
-1.932889
-1.982593
-1.950600
-1.934603
-1.984878
-1.967739
-1.908893
-1.948314
-1.978022
-1.986021
-1.986021
-1.986021
-1.986021
-1.986021
-1.986021
-1.986021
-1.986021
-1.986021
-1.986021
-1.986021
-1.986021
-1.986021
-1.986021
-1.986021
-1.986021
-1.986021
-1.986021
-1.986021
-1.986021
-1.986021
-1.986021
-1.986021
-1.986021
-1.986021
-1.986021
-1.986021
-1.986021
-1.986021
-1.986021
-1.986021
-1.986021
-1.986021
-1.986021
-1.986021
-1.986021
-1.986021
-1.986021
-1.986021
-1.986021
-1.986021
-1.986021
-1.986021
-1.986021
-1.986021
-1.986021
-1.986021
-1.986021
-1.986021
-1.986021
-1.986021
-1.986021
-1.986021
-1.986021
-1.986021
-1.986021
-1.986021
-1.986021
-1.986021
-1.986021
-1.986021
-1.986021
-1.986021
-1.986021
-1.986021
-1.986021
-1.986021
-1.986021
-1.986021
-1.986021
-1.986021
-1.986021
