-1.986021
-1.986021
-1.986021
-1.986021
-1.977023
-1.986021
-1.972524
-1.968667
-1.986021
-1.986021
-1.986021
-1.986021
-1.978308
-1.986021
-1.986021
-1.986021
-1.986021
-1.986021
-1.986021
-1.986021
-1.986021
-1.986021
-1.986021
-1.986021
-1.986021
-1.986021
-1.986021
-1.986021
-1.986021
-1.986021
-1.986021
-1.986021
-1.968667
-1.975094
-1.970096
-1.966049
-1.973404
-1.979594
-1.942315
-1.952432
-1.953242
-1.964168
-1.964168
-1.986021
-1.986021
-1.986021
-1.986021
-1.986021
-1.986021
-1.986021
-1.986021
-1.986021
-1.986021
-1.986021
-1.986021
-1.986021
-1.986021
-1.986021
-1.986021
-1.970595
-1.966334
-1.955813
-1.952313
-1.944982
-1.950504
-1.946172
-1.950028
-1.954194
-1.957027
-1.964358
-1.968024
-1.986021
-1.986021
-1.986021
-1.986021
-1.986021
-1.986021
-1.986021
-1.986021
-1.986021
-1.986021
-1.986021
-1.986021
-1.986021
-1.986021
-1.986021
-1.982022
-1.968881
-1.952242
-1.953242
-1.951742
-1.948600
-1.945457
-1.933317
-1.908893
-1.910679
-1.935888
-1.964168
-1.978308
-1.986021
-1.986021
-1.986021
-1.986021
-1.986021
-1.986021
-1.986021
-1.986021
-1.986021
-1.986021
-1.986021
-1.986021
-1.986021
-1.986021
-1.986021
-1.981522
-1.968667
-1.951313
-1.951956
-1.958455
-1.959407
-1.949361
-1.932032
-1.876757
-1.864545
-1.874186
-1.924700
-1.981260
-1.986021
-1.986021
-1.986021
-1.986021
-1.986021
-1.986021
-1.986021
-1.986021
-1.986021
-1.986021
-1.986021
-1.986021
-1.986021
-1.971238
-1.986021
-1.964121
-1.986021
-1.953837
-1.934246
-1.981450
-1.877614
-1.943149
-1.373073
-0.884742
-0.799712
-1.457841
-1.881875
-1.977189
-1.956027
-1.971238
-1.960836
-1.936745
-1.981070
-1.970833
-1.974523
-1.962478
-1.970548
-1.985735
-1.983450
-1.983450
-1.983450
-1.986021
-1.986021
-1.976023
-1.986021
-1.927461
-1.926533
-1.710719
-1.635091
-0.516316
0.790563
1.439290
1.233760
0.061067
-1.337152
-1.949885
-1.980451
-1.966525
-1.863046
-1.864545
-1.948100
-1.906323
-1.951528
-1.875615
-1.984164
-1.982593
-1.955170
-1.955170
-1.955170
-1.975737
-1.982212
-1.968120
-1.951171
-1.866283
-1.835004
-1.838908
-0.798926
1.617563
2.099800
2.318827
2.012651
0.503692
-1.413374
-1.888374
-1.963169
-1.986021
-1.958884
-1.881042
-1.878995
-1.455889
-1.628093
-1.884422
-1.899943
-1.954741
-1.951313
-1.951313
-1.951313
-1.986021
-1.979355
-1.985545
-1.985450
-1.943625
-1.866474
-1.382999
0.469342
2.371840
2.402310
2.282025
1.139826
-0.306359
-1.614429
-1.939649
-1.942958
-1.903704
-1.954003
-1.956669
-1.472053
-0.369179
-0.293361
-1.624046
-1.973095
-1.937602
-1.951313
-1.951313
-1.951313
-1.986021
-1.977451
-1.973166
-1.960312
-1.915964
-1.300016
0.312374
2.112869
2.390313
2.153789
0.986381
-0.937946
-1.775206
-1.780348
-1.954741
-1.950671
-1.971024
-1.964811
-1.899253
-0.056338
1.661459
2.240557
-0.016274
-1.642590
-1.950028
-1.939744
-1.939744
-1.939744
-1.986021
-1.972452
-1.979689
-1.974166
-1.862522
0.142146
1.531129
2.317970
2.063760
0.840482
-0.986365
-1.952075
-1.943886
-1.981498
-1.944839
-1.949457
-1.927533
-1.919201
-1.873972
0.917800
1.987870
2.205136
0.408164
-1.363242
-1.939316
-1.956455
-1.956455
-1.956455
-1.969953
-1.975904
-1.962216
-1.940887
-1.519496
1.546697
2.216919
2.328968
1.359973
-0.577161
-1.956360
-1.984259
-1.827124
-1.865212
-1.861022
-1.968024
-1.851334
-1.934960
-1.870973
1.364233
2.282049
2.214919
0.194707
-1.488216
-1.985878
-1.984735
-1.984735
-1.984735
-1.978308
-1.970238
-1.963882
-1.983878
-1.395925
1.960114
2.343822
2.263981
-0.257369
-1.542539
-1.926604
-1.901609
-1.957741
-1.948314
-1.938887
-1.955170
-1.856547
-1.925604
-1.162687
1.941118
2.423449
1.728518
-0.734487
-1.896039
-1.977451
-1.986021
-1.986021
-1.986021
-1.982807
-1.983997
-1.969691
-1.976166
-1.299659
1.644296
2.226846
2.222251
0.132482
-1.319941
-1.853190
-1.941125
-1.926176
-1.852286
-1.888421
-1.843692
-1.871877
-1.758186
-0.234373
1.935952
2.316042
1.183056
-1.245099
-1.957217
-1.986021
-1.986021
-1.986021
-1.986021
-1.940387
-1.948386
-1.984355
-1.982450
-1.618071
0.803751
2.198566
2.354748
1.893175
0.226034
-0.338638
-0.469516
-0.460328
-0.497463
-0.475991
-0.687354
-0.828659
-0.565188
1.127781
2.320874
2.275717
0.479197
-1.782419
-1.971881
-1.986021
-1.986021
-1.986021
-1.986021
-1.976380
-1.981165
-1.972595
-1.978308
-1.870616
-0.441189
1.238116
2.288833
2.387171
2.151218
2.304901
2.122010
2.146933
2.201636
2.267623
1.929691
1.746300
1.655032
2.156360
2.304901
2.294047
0.411568
-1.864331
-1.869044
-1.986021
-1.986021
-1.986021
-1.986021
-1.986021
-1.975904
-1.962216
-1.986021
-1.939102
-1.575437
-0.211592
1.380278
2.315351
2.340394
2.385314
2.359390
2.353606
2.339823
2.188996
2.374388
2.231964
2.301307
2.344036
2.377173
2.341466
0.551968
-1.789394
-1.950028
-1.970595
-1.986021
-1.986021
-1.986021
-1.986021
-1.986021
-1.986021
-1.964311
-1.876662
-1.898229
-1.851191
-0.966321
0.111176
1.213050
1.302008
1.135708
0.784850
0.867476
1.081671
1.473069
1.365995
1.901126
2.157217
2.427020
2.077947
0.144622
-1.817555
-1.956360
-1.981450
-1.986021
-1.986021
-1.986021
-1.980236
-1.966525
-1.986021
-1.986021
-1.980451
-1.926890
-1.914035
-1.902895
-1.660158
-1.791274
-1.833266
-1.846763
-1.915964
-1.875472
-1.913178
-1.680082
-1.399425
0.846266
2.138364
2.400168
1.399227
-0.684497
-1.925604
-1.956455
-1.975737
-1.986021
-1.986021
-1.986021
-1.985378
-1.978951
-1.986021
-1.896896
-1.801582
-1.890374
-1.835623
-1.852286
-1.869592
-1.840550
-1.879257
-1.868997
-1.876114
-1.831242
-1.805057
-1.883042
-1.543491
0.739526
2.080089
2.189734
0.569584
-1.299802
-1.855143
-1.960597
-1.986021
-1.986021
-1.986021
-1.986021
-1.986021
-1.986021
-1.984188
-1.969810
-1.968667
-1.929056
-1.951313
-1.965454
-1.957741
-1.936317
-1.975737
-1.934079
-1.950028
-1.935912
-1.958431
-1.959455
-1.260762
1.472878
2.396740
2.002772
-0.008347
-1.774849
-1.793440
-1.975356
-1.979736
-1.986021
-1.986021
-1.986021
-1.986021
-1.986021
-1.986021
-1.986021
-1.972524
-1.947529
-1.969524
-1.978022
-1.972524
-1.972524
-1.986021
-1.961026
-1.966525
-1.921034
-1.932032
-1.837979
-1.499547
1.643963
2.308044
2.103085
-0.335853
-1.966953
-1.882470
-1.963025
-1.967167
-1.986021
-1.986021
-1.986021
-1.986021
-1.986021
-1.986021
-1.986021
-1.986021
-1.986021
-1.986021
-1.986021
-1.985473
-1.971238
-1.975618
-1.972333
-1.986021
-1.959026
-1.959026
-1.940744
-1.775420
1.366686
2.310400
2.050452
-0.422002
-1.932674
-1.956955
-1.961692
-1.955170
-1.986021
-1.986021
-1.986021
-1.986021
-1.986021
-1.986021
-1.986021
-1.986021
-1.977023
-1.977023
-1.980689
-1.986021
-1.986021
-1.979689
-1.969953
-1.982022
-1.970595
-1.977927
-1.954027
-1.813841
0.622288
2.095301
1.567264
-0.764100
-1.979522
-1.956455
-1.918677
-1.986021
-1.986021
-1.986021
-1.986021
-1.986021
-1.986021
-1.986021
-1.986021
-1.986021
-1.986021
-1.986021
-1.986021
-1.986021
-1.986021
-1.975166
-1.971738
-1.979165
-1.964525
-1.975523
-1.976380
-1.790989
-0.491893
1.110642
0.801847
-1.123837
-1.861760
-1.977166
-1.982307
-1.986021
-1.986021
-1.986021
-1.986021
-1.986021
-1.986021
-1.986021
-1.986021
-1.986021
-1.986021
-1.986021
-1.986021
-1.986021
-1.986021
-1.986021
-1.986021
-1.986021
-1.982807
-1.968667
-1.983521
-1.933246
-1.533017
-0.532171
-0.802687
-1.613929
-1.824053
-1.957074
-1.977356
-1.974595
-1.986021
-1.986021
-1.986021
-1.986021
-1.986021
-1.986021
-1.986021
-1.986021
-1.986021
-1.986021
-1.986021
-1.986021
-1.986021
-1.986021
-1.986021
-1.986021
-1.982807
-1.968667
-1.971024
-1.979594
-1.984116
-1.916821
-1.976999
-1.948528
-1.922462
-1.968334
-1.976023
-1.956884
-1.986021
-1.986021
-1.986021
-1.986021
-1.986021
-1.986021
-1.986021
-1.986021
-1.986021
-1.986021
-1.986021
-1.986021
-1.986021
-1.986021
-1.986021
